{
  "type": "service_account",
  "project_id": "laboftpris",
  "private_key_id": "34119dd1e3cd0c15b9ec3eb3ab4a22871ac82004",
  "private_key": "-----BEGIN PRIVATE KEY-----\nMIIEvgIBADANBgkqhkiG9w0BAQEFAASCBKgwggSkAgEAAoIBAQDcVuft0/BdSK5V\nPZjF1737JkJxKBDV1vGLkxM0awsysW9anbi9T8FzSyE+URH6PprSgKv7fWP0gKL9\ncXiIEznQJY9tt53iGkc9yW7TkEzYp4jX0MjvqdP3/ca8b65LezBuAVKHl9WZj3CQ\nIG/209kQT6+WwdBVuKw0AtHjrdQ9zoxSEVTO+1ilA5Z6n11TbHZTAaA2FPqHR5NI\ne4lnnX/QrQIc6ctJZlkJ9Tvh/J2NAdqEXkmpZfFkJpICb2sU13QBkrT37IAtlYht\nRwF0bFb0MwNFtCVlQEcsZ1ISlr8yZHRTvKBKsIceKHlZ9mKZWi3I95vlw/I/g1f2\nKsVyqYDPAgMBAAECggEAG7jNbmVDcSEjWfMphP7LVs1t/5moYJcuBb8H5AjxvDuJ\nxI9ifmMJ9k0GDjaZ+e+lgAWTXc1dZZZHq3Z60TgGBpOrM4UuFpPy0anFyVV27a1K\ncMjCdzDZS/LAbdXpSnLh2X1OGmQ2ih77bQ6/t4DY5w33jBKveRGGjPar3KbytKHL\nvXSPlrCGENn79QQt+IMBFMecnqUolqy35iyeFBZNozGLrF2bc+M2EfqXwwPA9mjU\nfCh0+M7nk/+MRYRpaX7ktz32oywmpkb6zSYRvWA/pCZI4gj+N1r9FHXMyNPYmodq\nnue4FH4CTcYg+KcTD3mKoryZvF5sqyBZW9uIVJX1oQKBgQD5S/bE7CxGR9EgjYLU\n5DESm+Suld6yBhHcrEC4osipdcVS4U38pqUQM/OcDU9VPlha4IcCu1LpNKZlUUQQ\n9zaQkZb5AYXwEzHnXsmKZoKKkCiSKrb2Axk7+7E3BDIpUDVXVp3s0pcD6GW67EC1\nC+KcozFX0QsCQVuWtWSlvx4WIQKBgQDiQ51Q7g9c1bCcjIjnWwFn6dKesNBNIs0Y\n7LgdQ05VbnmAgm8mv3vxGyi0kSYOkeLEvGqnfoKKqiIjv5nCGIb5Ero2eH7BFRN6\nbgq/vNVyR4K7u6mNMoUKji7LUq1gvAq4olPG2gEdoVNyilV0uBd85Wf96kae0XZV\n/nHjCAfY7wKBgQDnJu998jqvQ+H93BjGi3uQ9Kma0+30hbpEMhek25NRxZicW7pz\nHJWKq5EjThgUQ0WrpeqptsWO5Lmw0iRZ0s9uRwCEjEwDqdio3vPi91/tWPO1bBPP\nklnwi1TrXWGhevSqse6m6zEJd4/0PSFWfdm2QX78HSGnCrEA0dqr8MTV4QKBgQCb\nC/RIWemDFxegHxlNWGpdN7hRcB49TWS3+LatrsqF9l8iNb9PERYwgQjiuzgV8dgw\nMmDvh9ySgsVEM+58N+x9z1x1KRrK2tNvKOsKuq6VUfV/CbjE/eJ2+jmMsIoIaLL8\nFJhOAmOTV1JkgfDPO7s0pcseDyT3fdeWU/bcuUsPVwKBgFKwQBxkSEKZC7xfV8Vs\nm9FYvQBJgkYYW9sPxy6liYtQL7ZsdMUxXI8Aa0QZjtr75lFgrA8HIYVeuhIfjpZa\nUQUD4k7Mye+oKEGrrs+Cx7fyaLh3pJATNH9zi5oAa+NrBE/2E+gh+FAUCgCcmUuh\nr/T+QbsZBRvoxYiEfI+NujBM\n-----END PRIVATE KEY-----\n",
  "client_email": "firebase-adminsdk-i3057@laboftpris.iam.gserviceaccount.com",
  "client_id": "110667407167078875777",
  "auth_uri": "https://accounts.google.com/o/oauth2/auth",
  "token_uri": "https://accounts.google.com/o/oauth2/token",
  "auth_provider_x509_cert_url": "https://www.googleapis.com/oauth2/v1/certs",
  "client_x509_cert_url": "https://www.googleapis.com/robot/v1/metadata/x509/firebase-adminsdk-i3057%40laboftpris.iam.gserviceaccount.com"
}
